<?xml version="1.0" encoding="utf-8"?>
<!-- Generator: Adobe Illustrator 19.2.1, SVG Export Plug-In . SVG Version: 6.00 Build 0)  -->
<svg version="1.1" id="Warstwa_1" xmlns="http://www.w3.org/2000/svg" xmlns:xlink="http://www.w3.org/1999/xlink" x="0px" y="0px"
	 viewBox="0 0 612 610.8" style="enable-background:new 0 0 612 610.8;" xml:space="preserve">
<style type="text/css">
	.st0{fill:#676767;}
</style>
<g>
	<g id="cross">
		<g>
			<polygon class="st0" points="612,35.4 576.5,0 306,270 35.5,0 0,35.4 270.5,305.4 0,575.4 35.5,610.8 306,340.8 576.5,610.8 
				612,575.4 341.5,305.4 			"/>
		</g>
	</g>
</g>
</svg>
