<?xml version="1.0" encoding="utf-8"?>
<!-- Generator: Adobe Illustrator 19.2.1, SVG Export Plug-In . SVG Version: 6.00 Build 0)  -->
<svg version="1.1" id="Warstwa_1" xmlns="http://www.w3.org/2000/svg" xmlns:xlink="http://www.w3.org/1999/xlink" x="0px" y="0px"
	 viewBox="0 0 386.3 192.5" style="enable-background:new 0 0 386.3 192.5;" xml:space="preserve">
<style type="text/css">
	.st0{fill:#77D37B;}
</style>
<polygon class="st0" points="0,0 193.1,192.5 386.3,0 "/>
</svg>
